<?xml version="1.0" encoding="utf-8"?>
<!-- Generator: Adobe Illustrator 23.1.0, SVG Export Plug-In . SVG Version: 6.00 Build 0)  -->
<svg version="1.1" id="Слой_1" xmlns="http://www.w3.org/2000/svg" xmlns:xlink="http://www.w3.org/1999/xlink" x="0px" y="0px"
	 viewBox="0 0 500 500" style="enable-background:new 0 0 500 500;" xml:space="preserve">
<style type="text/css">
	.st0{display:none;fill:#171717;}
	.st1{display:none;fill-opacity:0;}
	.st2{opacity:6.000000e-02;fill:#9BB7CE;enable-background:new    ;}
	.st3{fill:#A2D855;}
	.st4{fill:#65BD00;}
	.st5{fill:#4EA000;}
	.st6{fill:#FFFFFF;}
</style>
<rect x="0.3" class="st0" width="500" height="500"/>
<rect id="bg_1_" x="-0.6" y="-2.5" class="st1" width="501.2" height="506.5"/>
<g>
	<path id="Path_12_" class="st2" d="M22.8,172.6c19-40.5,55.3-74.9,97.4-93.5C151.9,64.9,203.5,63,230.7,93
		c41.2,45.3,23.6,124,4.5,175.5C217.1,316.7,170.4,372,111.1,382c-0.5,0-0.9,0-1.8,0.5c-33.5,5.7-69.3-5.7-90.2-35.8
		C-13.9,299-0.4,222.2,22.8,172.6z"/>
	<path id="Path_11_" class="st2" d="M372,79.3c2.6-10.7,8.4-20.4,15.9-28.3c15.4-14.8,37-14.8,56-7.4C480,58,484,114.1,455.8,139.2
		c-15,13.4-38.3,13-55.5,5.1C377.8,134.1,365.4,103.9,372,79.3z"/>
	<ellipse id="Oval_3_" class="st3" cx="466.9" cy="137.9" rx="15.8" ry="16.7"/>
	<ellipse id="Oval_2_" class="st4" cx="464.4" cy="10.3" rx="9.8" ry="10.3"/>
	<path id="Path_10_" class="st2" d="M464.8,504H277c-52,0-63.9-80.5-44-118.4c12.6-22.8,30.8-42.1,52-56.5
		c26.8-18,60.5-24,91.9-26.4c26.3-2.4,54.8-0.6,78.8,12.6c60,33.1,49.1,111.8,22.8,164.7C474.5,487.8,470,496.2,464.8,504z"/>
	<ellipse id="Oval_1_" class="st5" cx="400" cy="182.8" rx="9.8" ry="10.3"/>
	<path id="Path_7_" class="st3" d="M433.7,76c0,0.8-0.5,1.5-1.3,1.6c-5.5,1-10.8,3-15.7,5.9c-4.7,2.9-8.8,6.7-12,11.3
		c-4.9,7.1-8.2,15.3-9.5,24c-0.1,0.8-0.8,1.3-1.5,1.3s-1.4-0.6-1.5-1.3c-3.7-21.7-16.1-37.2-37-41.2c-0.8,0-1.5-0.7-1.5-1.6
		s0.7-1.6,1.5-1.6c21.1-4.1,33.4-19.6,37-41.5c0.1-0.8,0.8-1.3,1.5-1.3s1.4,0.6,1.5,1.3c1.3,9,4.7,17.6,9.9,24.9
		c5.1,6.8,12,11.9,19.8,14.6c2.4,0.8,4.9,1.5,7.3,2C433.2,74.5,433.8,75.2,433.7,76L433.7,76z"/>
	<path id="Path_6_" class="st4" d="M433.7,76c0,0.8-0.5,1.5-1.3,1.6c-5.5,1-10.8,3-15.7,5.9c-4.7,2.9-8.8,6.7-12,11.3
		c-3.3-5.3-7.2-10.1-11.8-14.3c-0.6-0.5-1.3-1-2-1.5c-3.4-2.4-2.9-3.9,1.3-6.4c5.3-3.9,9.7-9,12.9-14.8c5.1,6.8,12,11.9,19.8,14.6
		c2.4,0.8,4.9,1.5,7.3,2C433.2,74.5,433.8,75.2,433.7,76L433.7,76z"/>
	<g>
		<path class="st4" d="M126.9,326.2c-0.6,0-1.2-0.2-1.8-0.5L41.5,277c-1.1-0.6-1.7-1.8-1.7-3v-90.6c0-1.2,0.7-2.4,1.7-3l83.6-48.8
			c1.1-0.6,2.4-0.6,3.5,0l83.6,48.8c1.1,0.6,1.7,1.8,1.7,3V274c0,1.2-0.7,2.4-1.7,3l-83.6,48.8C128.1,326.1,127.5,326.2,126.9,326.2
			z M46.8,272l80.1,46.7L207,272v-86.6l-80.1-46.7l-80.1,46.7V272z M210.5,274L210.5,274L210.5,274z"/>
	</g>
	<g>
		<path class="st4" d="M210.5,465.6c-0.6,0-1.2-0.2-1.8-0.5l-83.6-48.8c-1.1-0.6-1.7-1.8-1.7-3v-90.6c0-1.2,0.7-2.4,1.7-3l83.6-48.8
			c1.1-0.6,2.4-0.6,3.5,0l83.6,48.8c1.1,0.6,1.7,1.8,1.7,3v90.6c0,1.2-0.7,2.4-1.7,3l-83.6,48.8
			C211.7,465.4,211.1,465.6,210.5,465.6z M130.4,411.3l80.1,46.7l80.1-46.7v-86.6L210.5,278l-80.1,46.7V411.3z M294.1,413.3
			L294.1,413.3L294.1,413.3z"/>
	</g>
	<g>
		<path class="st4" d="M377.7,465.6c-0.6,0-1.2-0.2-1.8-0.5l-83.6-48.8c-1.1-0.6-1.7-1.8-1.7-3v-90.6c0-1.2,0.7-2.4,1.7-3L376,271
			c1.1-0.6,2.4-0.6,3.5,0l83.6,48.8c1.1,0.6,1.7,1.8,1.7,3v90.6c0,1.2-0.7,2.4-1.7,3l-83.6,48.8
			C378.9,465.4,378.3,465.6,377.7,465.6z M297.6,411.3l80.1,46.7l80.1-46.7v-86.6L377.7,278l-80.1,46.7V411.3z M461.3,413.3
			L461.3,413.3L461.3,413.3z"/>
	</g>
	<g>
		<path class="st6" d="M161.7,197.3H92.1c-1.9,0-3.5-1.6-3.5-3.5c0-1.9,1.6-3.5,3.5-3.5h69.7c1.9,0,3.5,1.6,3.5,3.5
			C165.2,195.8,163.7,197.3,161.7,197.3z"/>
	</g>
	<g>
		<path class="st6" d="M126.9,267c-1.9,0-3.5-1.6-3.5-3.5v-69.7c0-1.9,1.6-3.5,3.5-3.5s3.5,1.6,3.5,3.5v69.7
			C130.4,265.4,128.8,267,126.9,267z"/>
	</g>
	<g>
		<path class="st6" d="M175.7,406.3c-1.9,0-3.5-1.6-3.5-3.5v-69.7c0-1.9,1.6-3.5,3.5-3.5c1.9,0,3.5,1.6,3.5,3.5v69.7
			C179.2,404.8,177.6,406.3,175.7,406.3z"/>
	</g>
	<g>
		<path class="st6" d="M245.3,406.3c-1.9,0-3.5-1.6-3.5-3.5v-69.7c0-1.9,1.6-3.5,3.5-3.5c1.9,0,3.5,1.6,3.5,3.5v69.7
			C248.8,404.8,247.3,406.3,245.3,406.3z"/>
	</g>
	<g>
		<path class="st6" d="M245.3,371.5h-69.7c-1.9,0-3.5-1.6-3.5-3.5s1.6-3.5,3.5-3.5h69.7c1.9,0,3.5,1.6,3.5,3.5
			S247.3,371.5,245.3,371.5z"/>
	</g>
	<g>
		<path class="st6" d="M382.8,406.3c-10.3,0-19.9-4-27.2-11.3c-7.3-7.3-11.3-16.9-11.3-27.2c0-10.3,4-19.9,11.3-27.2
			c7.3-7.3,16.9-11.3,27.2-11.3c10.3,0,19.9,4,27.2,11.3c1.4,1.4,1.4,3.6,0,4.9c-1.4,1.4-3.6,1.4-4.9,0c-5.9-5.9-13.8-9.2-22.2-9.2
			c-8.4,0-16.3,3.3-22.2,9.2c-5.9,5.9-9.2,13.8-9.2,22.2s3.3,16.3,9.2,22.2c5.9,5.9,13.8,9.2,22.2,9.2c8.4,0,16.3-3.3,22.2-9.2
			c1.4-1.4,3.6-1.4,4.9,0c1.4,1.4,1.4,3.6,0,4.9C402.7,402.3,393.1,406.3,382.8,406.3z"/>
	</g>
</g>
</svg>
