<?xml version="1.0" standalone="no"?>
<!DOCTYPE svg PUBLIC "-//W3C//DTD SVG 20010904//EN"
 "http://www.w3.org/TR/2001/REC-SVG-20010904/DTD/svg10.dtd">
<svg version="1.0" xmlns="http://www.w3.org/2000/svg"
 width="200pt" height="200pt" viewBox="0 0 1270.000000 1280.000000"
 preserveAspectRatio="xMidYMid meet">
<g transform="translate(0.000000,1280.000000) scale(0.100000,-0.100000)"
fill="#1d1d1d" stroke="none">
<path d="M6561 12740 c-75 -115 -170 -369 -276 -738 -76 -263 -114 -358 -166
-418 -47 -54 -58 -90 -69 -223 -8 -109 -26 -153 -66 -159 -77 -12 -83 -26 -76
-179 6 -146 2 -159 -48 -173 -57 -15 -64 -47 -49 -251 13 -188 7 -229 -41
-254 -16 -8 -36 -15 -45 -15 -9 0 -27 -11 -40 -25 -31 -30 -32 -64 -9 -262 16
-133 16 -144 0 -168 -13 -20 -25 -25 -56 -25 -31 0 -43 -5 -55 -24 -15 -23
-14 -34 21 -175 42 -170 41 -186 -20 -222 -56 -33 -60 -61 -21 -181 45 -138
52 -191 31 -223 -10 -14 -26 -25 -39 -25 -36 0 -66 -27 -77 -70 -18 -65 3
-149 71 -287 32 -67 59 -133 59 -148 0 -31 -30 -45 -100 -45 -61 0 -80 -17
-80 -73 0 -47 39 -236 69 -339 11 -37 16 -70 12 -72 -3 -2 -26 1 -49 7 -36 9
-45 9 -52 -3 -21 -33 -10 -96 29 -178 55 -112 57 -132 26 -221 -31 -87 -28
-108 26 -206 42 -78 66 -188 55 -249 -5 -28 -12 -37 -34 -42 -15 -3 -32 -7
-39 -9 -21 -7 -27 -55 -14 -109 17 -69 110 -259 160 -325 50 -67 43 -81 -36
-81 -123 0 -123 -18 5 -370 93 -255 104 -294 88 -314 -7 -8 -35 -16 -74 -18
-34 -2 -67 -9 -73 -15 -11 -11 9 -60 188 -448 121 -260 159 -360 143 -370 -5
-3 -20 0 -34 6 -13 6 -32 9 -41 5 -25 -9 -15 -51 75 -291 120 -323 199 -590
234 -800 20 -111 20 -125 2 -125 -9 0 -42 55 -83 137 -37 76 -87 162 -112 192
-58 72 -69 119 -81 341 -5 102 -14 201 -19 221 -12 39 -33 64 -99 117 -54 42
-61 71 -72 267 -8 171 -24 234 -73 298 -60 79 -105 208 -127 362 -24 172 -36
189 -116 179 -81 -10 -81 -8 -82 159 0 157 -13 243 -43 281 -16 21 -29 26 -64
26 -60 0 -85 33 -130 172 -20 61 -43 124 -50 139 -20 38 -63 69 -95 69 -54 0
-81 57 -116 245 -25 140 -55 185 -123 185 -17 0 -42 10 -57 23 -25 22 -27 32
-36 133 -11 137 -31 208 -68 246 -28 28 -33 29 -89 22 -56 -6 -60 -5 -76 19
-9 14 -29 76 -46 138 -16 62 -39 139 -51 172 -36 100 -85 141 -119 101 -12
-15 -15 -14 -31 6 -9 12 -38 86 -64 166 -52 161 -71 194 -114 194 -45 0 -95
60 -157 190 -57 120 -85 160 -112 160 -9 0 -34 -12 -55 -26 -51 -35 -59 -24
-67 86 -9 133 -68 237 -174 310 -50 34 -75 38 -75 12 0 -22 -30 -52 -52 -52
-20 0 -48 32 -48 55 0 59 -127 358 -157 369 -12 5 -28 -5 -55 -36 -37 -42 -38
-43 -53 -23 -9 11 -37 58 -63 103 -50 90 -101 155 -135 174 -12 7 -44 15 -72
18 -46 5 -51 8 -69 45 -24 51 -101 153 -212 280 -174 200 -331 424 -498 710
-141 241 -204 320 -227 284 -18 -29 -7 -83 67 -342 67 -235 89 -350 164 -867
132 -912 139 -940 305 -1148 38 -48 37 -65 -6 -82 -110 -46 -107 -97 17 -256
81 -105 116 -170 109 -204 -7 -32 27 -86 122 -195 107 -122 111 -135 62 -214
-29 -47 -31 -53 -19 -82 8 -17 58 -78 112 -135 55 -58 106 -120 114 -139 8
-21 14 -62 12 -102 -2 -90 10 -111 137 -236 104 -102 122 -127 87 -127 -10 0
-23 -5 -30 -12 -37 -37 15 -131 109 -199 120 -86 179 -149 179 -192 0 -43 47
-109 144 -204 97 -96 119 -127 147 -203 8 -22 64 -86 155 -176 114 -113 144
-149 153 -181 16 -57 60 -114 173 -223 112 -107 143 -150 140 -195 -5 -64 84
-149 271 -259 98 -57 136 -90 118 -100 -22 -14 -84 8 -127 45 -33 28 -56 39
-91 44 -68 8 -143 46 -206 103 -66 60 -126 90 -208 103 -81 13 -164 53 -259
124 -101 76 -166 112 -225 125 -63 14 -109 41 -221 129 -91 73 -178 121 -217
121 -33 0 -119 44 -147 75 -42 45 -77 58 -159 57 -85 -2 -129 14 -213 75 -74
55 -147 83 -242 93 -93 10 -127 21 -168 55 -34 28 -86 45 -144 45 -49 0 -130
23 -152 43 -26 23 -82 35 -247 52 -459 48 -580 73 -1010 215 -150 50 -295 93
-322 96 l-48 5 326 -323 c344 -341 397 -398 427 -469 26 -58 43 -73 164 -133
97 -48 103 -53 108 -86 8 -50 13 -55 92 -101 87 -51 108 -72 108 -107 0 -33
44 -79 135 -140 75 -50 128 -102 170 -167 50 -76 97 -112 170 -129 49 -12 96
-55 121 -112 30 -68 60 -84 179 -94 115 -10 137 -20 128 -60 -15 -78 111 -171
258 -189 85 -11 119 -38 119 -94 0 -64 42 -103 163 -152 113 -46 156 -73 203
-131 41 -49 84 -74 131 -74 36 0 122 -41 148 -70 46 -52 109 -68 316 -80 177
-10 231 -25 255 -72 26 -50 86 -69 248 -79 193 -12 328 -50 343 -96 10 -29
-197 -70 -442 -88 -219 -16 -255 -25 -418 -107 -87 -43 -144 -64 -211 -78
-166 -35 -206 -55 -262 -131 -45 -62 -95 -91 -213 -124 -165 -46 -223 -85
-301 -200 -57 -85 -83 -108 -142 -124 -59 -17 -117 -59 -151 -109 -16 -23 -55
-60 -86 -82 -136 -92 -512 -411 -618 -523 -54 -57 -68 -98 -41 -125 19 -19 40
-14 96 22 59 37 168 66 447 117 249 45 323 64 448 115 197 81 239 89 309 53
64 -33 133 -23 313 46 137 52 160 58 261 65 101 7 124 13 260 65 213 82 234
86 378 83 l124 -3 105 54 106 55 138 -2 c128 -2 142 0 198 24 84 36 152 54
206 54 34 0 59 9 105 36 32 20 100 56 149 79 96 45 512 205 534 205 21 0 5
-16 -117 -117 -64 -53 -145 -122 -180 -154 -73 -66 -156 -112 -301 -164 -123
-45 -192 -89 -202 -128 -11 -41 -26 -55 -92 -89 -66 -33 -107 -71 -107 -100 0
-36 -30 -77 -88 -122 -73 -56 -139 -150 -236 -337 -116 -225 -209 -469 -216
-569 -9 -124 14 -114 237 101 188 181 275 239 452 299 148 51 194 72 228 103
16 14 34 19 65 18 87 -4 101 -1 127 23 32 31 91 56 129 56 49 0 92 20 98 46 8
31 40 54 75 54 42 0 110 61 180 160 145 209 225 290 287 290 29 0 79 53 126
132 43 73 60 86 86 63 27 -25 40 -86 50 -236 11 -157 32 -293 85 -539 127
-589 226 -1213 255 -1600 6 -80 13 -155 15 -167 11 -51 188 -73 221 -28 19 26
17 104 -6 237 -10 62 -37 219 -60 348 -49 282 -97 616 -144 995 -133 1071
-158 1287 -152 1309 9 35 31 33 67 -7 39 -43 85 -121 214 -367 146 -277 186
-337 242 -361 27 -11 85 -58 148 -119 60 -57 116 -102 132 -106 50 -12 84 -35
163 -108 42 -40 91 -78 108 -84 18 -7 46 -17 64 -24 83 -31 336 -254 449 -396
32 -40 80 -111 106 -157 25 -47 59 -97 75 -112 27 -26 29 -26 46 -10 14 15 17
36 16 135 -2 165 -50 412 -119 612 -14 41 -29 107 -32 145 -6 75 -15 95 -43
95 -25 0 -68 54 -101 127 -32 72 -88 137 -141 164 -69 35 -75 99 -8 84 49 -11
146 -63 215 -115 134 -100 319 -195 437 -225 34 -9 112 -39 171 -67 84 -39
124 -52 183 -59 61 -7 91 -17 152 -50 188 -104 197 -106 263 -62 51 34 108 35
199 5 110 -36 132 -37 189 -9 60 28 88 25 194 -20 115 -48 223 -73 457 -103
250 -34 362 -62 608 -157 138 -53 171 -60 179 -37 8 24 -85 120 -274 286 -292
255 -431 397 -473 483 -34 68 -37 71 -115 110 -108 54 -148 87 -202 164 -65
92 -101 129 -154 156 -49 25 -153 49 -262 60 -44 5 -79 15 -100 29 -28 19 -32
28 -33 68 0 25 -4 53 -7 62 -9 24 -84 55 -132 56 -57 1 -168 25 -253 56 -85
31 -142 78 -142 117 0 33 -17 42 -122 67 -229 54 -745 110 -1012 110 -132 0
-290 16 -321 33 -19 10 -18 10 4 19 13 4 98 8 190 6 175 -2 211 5 211 42 0 11
9 24 19 30 24 12 132 13 229 0 40 -5 119 -10 175 -11 98 -1 102 0 122 25 30
37 69 46 245 56 85 4 163 11 172 15 23 9 28 29 18 66 -16 53 0 63 95 55 193
-16 281 -18 307 -7 15 6 40 29 55 51 16 22 38 43 50 46 12 3 77 -1 145 -10 68
-9 145 -16 170 -16 68 0 76 11 93 128 10 61 24 66 187 59 203 -8 238 5 238 88
0 23 5 46 12 53 8 8 58 12 158 12 169 0 180 5 180 78 0 64 23 75 189 83 181 8
188 12 169 89 -9 34 -8 44 4 56 20 20 79 33 148 34 58 0 139 18 180 40 14 7
49 35 78 61 32 30 70 53 95 60 23 6 56 16 74 21 17 5 61 36 98 68 49 43 82 63
123 75 53 16 141 55 527 237 205 97 362 158 406 158 37 0 89 26 89 44 0 32
-157 56 -365 56 -204 0 -525 27 -890 75 -433 57 -835 72 -1080 40 -128 -17
-176 -33 -216 -71 -34 -33 -85 -40 -133 -20 -55 23 -72 20 -156 -20 -97 -47
-195 -65 -331 -62 l-108 3 -33 -31 c-47 -45 -69 -54 -156 -64 -105 -12 -156
-33 -183 -77 -29 -46 -72 -63 -186 -74 -114 -10 -158 -28 -203 -80 -38 -43
-84 -60 -135 -48 -53 12 -135 9 -169 -5 -18 -8 -50 -34 -70 -58 -21 -24 -51
-53 -68 -62 -40 -24 -123 -46 -174 -46 -67 0 -135 -41 -170 -102 -30 -54 -88
-98 -129 -98 -27 0 -160 -101 -370 -279 -265 -226 -487 -385 -639 -457 -81
-39 -96 -41 -96 -15 0 29 74 113 214 245 137 128 178 179 195 243 15 56 91
124 223 199 125 71 192 134 202 189 4 22 16 51 27 66 21 30 117 83 234 129 90
35 168 82 190 113 21 30 19 76 -5 112 -24 36 -26 73 -5 102 8 11 56 51 107 88
198 145 242 180 259 209 21 35 11 56 -27 56 -13 0 -24 5 -24 12 0 6 58 68 128
137 128 125 192 211 192 259 0 59 44 105 153 157 139 68 215 178 157 230 -42
38 -28 58 125 163 125 86 149 118 140 189 -8 69 7 97 98 172 89 72 107 98 107
151 0 54 28 106 99 185 72 79 111 154 111 211 0 56 44 120 154 227 93 89 103
112 65 153 -29 31 -19 54 49 111 141 117 172 156 172 217 0 58 17 86 110 177
94 91 104 113 70 144 -35 32 -25 58 55 145 90 98 109 131 101 174 -5 25 3 49
34 111 33 64 40 89 40 135 0 189 157 466 449 793 65 72 139 161 164 196 75
101 61 131 -36 82 -60 -31 -98 -57 -453 -314 -244 -176 -440 -304 -527 -345
-59 -28 -79 -43 -83 -62 -10 -36 -22 -49 -44 -43 -36 9 -67 -6 -135 -67 -70
-64 -99 -80 -143 -80 -45 0 -121 -52 -258 -178 -140 -127 -197 -170 -256 -195
-46 -19 -83 -74 -138 -204 -45 -108 -73 -148 -93 -137 -7 4 -31 21 -53 37 -56
39 -73 29 -128 -81 -60 -119 -87 -142 -167 -149 -35 -3 -72 -10 -81 -15 -28
-14 -63 -84 -117 -232 -51 -140 -73 -186 -91 -186 -5 0 -19 18 -30 40 -11 22
-26 40 -34 40 -32 0 -69 -70 -131 -251 -66 -193 -76 -204 -138 -149 -19 16
-44 30 -55 30 -42 0 -80 -80 -113 -239 -29 -139 -34 -144 -101 -117 -60 25
-73 1 -83 -159 -4 -66 -13 -119 -21 -132 -8 -13 -36 -34 -62 -47 -56 -29 -90
-59 -103 -93 -5 -13 -9 -86 -9 -161 -1 -205 -14 -242 -90 -242 -73 0 -95 -33
-138 -203 -32 -127 -60 -190 -85 -195 -26 -5 -22 47 13 167 17 57 30 112 30
122 0 10 -14 31 -31 46 l-31 28 4 90 c6 116 34 189 99 261 73 81 67 122 -26
172 -78 43 -85 107 -21 200 92 133 111 223 63 298 -13 22 -31 45 -40 52 -9 8
-21 29 -27 47 -10 30 -6 49 36 172 25 76 49 164 51 195 5 50 2 65 -32 137
l-38 80 30 48 c38 60 44 87 33 138 -8 37 -28 62 -81 99 l-22 15 36 74 c43 85
75 203 84 302 6 81 -7 105 -58 105 -16 0 -38 9 -50 21 -18 18 -20 28 -15 72 4
28 23 100 42 160 20 60 33 115 30 123 -3 8 -16 18 -29 23 -30 12 -43 29 -52
69 -12 59 4 110 51 163 45 51 54 82 34 120 -15 27 -63 49 -107 49 -69 0 -72
10 -31 87 48 90 68 162 68 243 0 52 -5 73 -20 92 -29 37 -34 96 -19 218 15
134 10 154 -51 190 -66 38 -75 64 -61 169 17 132 14 170 -14 223 -32 60 -51
132 -76 293 -26 171 -45 242 -75 287 -31 45 -55 121 -88 275 -73 349 -71 723
6 1074 34 156 7 195 -61 89z m359 -7361 c0 -12 -14 -45 -31 -73 -45 -72 -68
-147 -79 -251 -5 -49 -14 -132 -19 -184 -7 -64 -18 -110 -35 -145 -38 -77 -53
-125 -96 -296 -47 -188 -106 -360 -164 -483 -49 -104 -75 -143 -76 -115 0 23
68 421 81 473 25 97 76 242 140 390 37 88 74 184 80 213 11 48 11 56 -11 102
-20 43 -22 54 -12 87 23 78 182 303 213 303 5 0 9 -10 9 -21z m-1639 -1121
c150 -107 622 -618 596 -645 -9 -9 -101 54 -176 121 -91 82 -164 169 -223 264
-59 95 -101 136 -130 126 -28 -9 -64 20 -98 79 -29 51 -38 87 -22 87 5 0 29
-14 53 -32z m-562 -681 c54 -15 62 -31 23 -51 -67 -35 -234 -29 -318 12 -38
18 -40 33 -3 43 40 11 251 8 298 -4z"/>
</g>
</svg>
